2018/02/25 22:41:02 [INFO] User provided config file: crypto-config/peerOrganizations/Asus.com/fabric-ca-client-config.yaml
2018/02/25 22:41:02 [INFO] Configuration file location: /Users/tdespenza/Projects/classes/hyperledger/pcxchg/crypto-config/peerOrganizations/Asus.com/fabric-ca-client-config.yaml
2018/02/25 22:41:02 [INFO] Stored CA root certificate at /Users/tdespenza/Projects/classes/hyperledger/pcxchg/crypto-config/peerOrganizations/Asus.com/msp/cacerts/localhost-7102.pem
